{
  "00102992": [
    {
      "id": "00102992",
      "termintype": "72",
      "termintypeTekst": "Utl\u00f8p tidsbegr.anset",
      "avtaledato": "2022-12-31",
      "behandlingsindikator": "Ny termin",
      "behandlingsindikatorTekst": "Termin under behandling",
      "paminnelsesdato": "2022-11-15",
      "tekst1": "tekst1 00102992 72",
      "tekst2": "tekst2 00102992 72",
      "tekst3": "tekst3 00102992 72",
      "endretDato": "2020-10-22",
      "endretAv": "9901KJAA"
    },
    {
      "id": "00102992",
      "termintype": 72,
      "termintypeTekst": "Utl\u00f8p tidsbegr.anset",
      "avtaledato": "2022-06-30",
      "behandlingsindikator": "Ny termin",
      "behandlingsindikatorTekst": "Termin under behandling",
      "paminnelsesdato": "2022-05-15",
      "tekst1": null,
      "tekst2": null,
      "tekst3": null,
      "endretDato": "2020-10-22",
      "endretAv": "9901KJAA"
    },
    {
      "id": "00102992",
      "termintype": "66",
      "termintypeTekst": "Utl\u00f8p tidsbegr.509",
      "avtaledato": "2021-12-31",
      "behandlingsindikator": "Ny termin",
      "behandlingsindikatorTekst": "Termin under behandling",
      "paminnelsesdato": "2021-11-15",
      "tekst1": null,
      "tekst2": null,
      "tekst3": null,
      "endretDato": "2020-10-22",
      "endretAv": "9901KJAA"
    },
    {
      "id": "00102992",
      "termintype": "66",
      "termintypeTekst": "Utl\u00f8p tidsbegr.509",
      "avtaledato": "2021-05-31",
      "behandlingsindikator": "Ny termin",
      "behandlingsindikatorTekst": "Termin under behandling",
      "paminnelsesdato": "2021-04-15",
      "tekst1": null,
      "tekst2": null,
      "tekst3": null,
      "endretDato": "2020-10-22",
      "endretAv": "9901KJAA"
    },
    {
      "id": "00102992",
      "termintype": "08",
      "termintypeTekst": "Permisjon utl\u00f8per",
      "avtaledato": "9999-12-31",
      "behandlingsindikator": "Ny termin",
      "behandlingsindikatorTekst": "Termin under behandling",
      "paminnelsesdato": "2021-08-15",
      "tekst1": null,
      "tekst2": null,
      "tekst3": null,
      "endretDato": "2021-09-16",
      "endretAv": "9901KAFU"
    }
  ],
  "00102989": [
    {
      "id": "00102989",
      "termintype": "72",
      "termintypeTekst": "Utl\u00f8p tidsbegr.anset",
      "avtaledato": "2021-01-01",
      "behandlingsindikator": "Ny termin",
      "behandlingsindikatorTekst": "Termin under behandling",
      "paminnelsesdato": "2020-11-15",
      "tekst1": null,
      "tekst2": null,
      "tekst3": null,
      "endretDato": "2020-10-22",
      "endretAv": "9901KJAA"
    }
  ]
}